<svg width="200" height="113" viewBox="0 0 200 113" fill="none" xmlns="http://www.w3.org/2000/svg">
<path d="M68.1635 50V13.52H75.6515V1.744H47.9395V13.52H55.1075V50H68.1635ZM78.118 25.872C78.118 37.648 83.302 50.832 96.55 50.832C109.798 50.832 114.982 37.648 114.982 25.872C114.982 14.096 109.798 0.911999 96.55 0.911999C83.302 0.911999 78.118 14.096 78.118 25.872ZM91.43 25.872C91.43 22.864 91.622 13.072 96.55 13.072C101.478 13.072 101.67 22.864 101.67 25.872C101.67 28.88 101.478 38.672 96.55 38.672C91.622 38.672 91.43 28.88 91.43 25.872ZM133.054 50V34.192C144.382 34.512 152.062 30.672 152.062 18.128C152.062 5.456 143.294 1.744 131.902 1.744H119.998V50H133.054ZM138.878 17.936C138.878 21.52 136.638 23.504 133.054 23.312V12.176L134.014 12.112C137.214 12.112 138.878 14.864 138.878 17.936Z" fill="#FEFF02"/>
<path d="M20.6922 112V75.52H28.1802V63.744H0.468246V75.52H7.63625V112H20.6922ZM73.0788 112L82.8068 63.744H70.0708L67.1908 83.2C66.6147 86.976 66.4867 90.688 66.1027 93.696H65.9748C65.4627 90.176 65.0788 86.72 64.5028 83.2L61.1747 63.744H49.9747L46.5827 83.2C45.9427 86.784 45.8787 90.304 45.4947 93.888H45.3667C44.9187 90.304 44.5347 86.784 44.0227 83.2L41.1427 63.744H28.2787L39.0307 112H51.7027L54.4547 92.416C55.0307 88.512 55.1587 85.12 55.4787 81.792H55.6067C56.0547 85.12 56.2467 88.512 56.9507 92.416L60.4707 112H73.0788ZM85.3387 112H109.595V100.608H98.3947V93.248H108.443V81.856H98.3947V75.136H109.595V63.744H85.3387V112ZM115.996 112H140.252V100.608H129.052V93.248H139.1V81.856H129.052V75.136H140.252V63.744H115.996V112ZM164.51 112V75.52H171.998V63.744H144.286V75.52H151.454V112H164.51ZM174.72 110.848C177.792 112.128 181.184 112.832 184.512 112.832C193.6 112.832 199.872 105.664 199.872 96.704C199.872 93.056 199.04 90.496 197.504 88.32C196.032 86.144 193.856 84.352 191.104 82.432C190.4 81.856 189.44 81.216 188.736 80.448C188.032 79.68 187.456 78.784 187.456 77.76C187.456 75.904 189.312 74.816 190.848 74.816C193.856 74.816 196.992 77.568 198.528 80V65.344C195.776 63.872 192.384 62.912 189.248 62.912C178.112 62.912 174.528 73.152 174.528 78.784C174.528 82.304 175.552 84.992 177.152 87.232C178.816 89.536 181.056 91.392 183.616 93.376C184.448 93.952 185.216 94.528 185.792 95.232C186.432 95.936 186.816 96.768 186.816 97.92C186.816 100.032 184.768 101.12 182.976 101.12C179.648 101.12 176.512 98.432 174.72 95.744V110.848Z" fill="white"/>
</svg>
