<svg width="40" height="70" viewBox="0 0 40 70" fill="none" xmlns="http://www.w3.org/2000/svg">
<path d="M-2.62268e-06 60L25 35L-4.37114e-07 10L5 -1.5299e-06L40 35L5 70L-2.62268e-06 60Z" fill="white"/>
</svg>
